%TF.GenerationSoftware,KiCad,Pcbnew,5.1.10-88a1d61d58~88~ubuntu18.04.1*%
%TF.CreationDate,2022-01-24T00:07:05+01:00*%
%TF.ProjectId,pavlov_mini_electronics_board,7061766c-6f76-45f6-9d69-6e695f656c65,rev?*%
%TF.SameCoordinates,Original*%
%TF.FileFunction,Other,Fab,Top*%
%FSLAX46Y46*%
G04 Gerber Fmt 4.6, Leading zero omitted, Abs format (unit mm)*
G04 Created by KiCad (PCBNEW 5.1.10-88a1d61d58~88~ubuntu18.04.1) date 2022-01-24 00:07:05*
%MOMM*%
%LPD*%
G01*
G04 APERTURE LIST*
%ADD10C,0.100000*%
%ADD11C,0.150000*%
G04 APERTURE END LIST*
D10*
%TO.C,J21*%
X126873000Y-119126000D02*
X128778000Y-119126000D01*
X128778000Y-119126000D02*
X128778000Y-129286000D01*
X128778000Y-129286000D02*
X126238000Y-129286000D01*
X126238000Y-129286000D02*
X126238000Y-119761000D01*
X126238000Y-119761000D02*
X126873000Y-119126000D01*
%TO.C,J20*%
X78486000Y-151638000D02*
X80391000Y-151638000D01*
X80391000Y-151638000D02*
X81026000Y-152273000D01*
X81026000Y-152273000D02*
X81026000Y-156718000D01*
X81026000Y-156718000D02*
X78486000Y-156718000D01*
X78486000Y-156718000D02*
X78486000Y-151638000D01*
%TO.C,J19*%
X99314000Y-151638000D02*
X101219000Y-151638000D01*
X101219000Y-151638000D02*
X101854000Y-152273000D01*
X101854000Y-152273000D02*
X101854000Y-156718000D01*
X101854000Y-156718000D02*
X99314000Y-156718000D01*
X99314000Y-156718000D02*
X99314000Y-151638000D01*
%TO.C,J18*%
X78486000Y-92202000D02*
X80391000Y-92202000D01*
X80391000Y-92202000D02*
X81026000Y-92837000D01*
X81026000Y-92837000D02*
X81026000Y-97282000D01*
X81026000Y-97282000D02*
X78486000Y-97282000D01*
X78486000Y-97282000D02*
X78486000Y-92202000D01*
%TO.C,J17*%
X99314000Y-92202000D02*
X101219000Y-92202000D01*
X101219000Y-92202000D02*
X101854000Y-92837000D01*
X101854000Y-92837000D02*
X101854000Y-97282000D01*
X101854000Y-97282000D02*
X99314000Y-97282000D01*
X99314000Y-97282000D02*
X99314000Y-92202000D01*
%TO.C,J11*%
X119634000Y-119126000D02*
X121539000Y-119126000D01*
X121539000Y-119126000D02*
X122174000Y-119761000D01*
X122174000Y-119761000D02*
X122174000Y-129286000D01*
X122174000Y-129286000D02*
X119634000Y-129286000D01*
X119634000Y-129286000D02*
X119634000Y-119126000D01*
%TO.C,J7*%
X98298000Y-141859000D02*
X98298000Y-139954000D01*
X98298000Y-139954000D02*
X105918000Y-139954000D01*
X105918000Y-139954000D02*
X105918000Y-142494000D01*
X105918000Y-142494000D02*
X98933000Y-142494000D01*
X98933000Y-142494000D02*
X98298000Y-141859000D01*
%TO.C,J6*%
X98298000Y-107315000D02*
X98298000Y-105410000D01*
X98298000Y-105410000D02*
X105918000Y-105410000D01*
X105918000Y-105410000D02*
X105918000Y-107950000D01*
X105918000Y-107950000D02*
X98933000Y-107950000D01*
X98933000Y-107950000D02*
X98298000Y-107315000D01*
%TO.C,J5*%
X77470000Y-107315000D02*
X77470000Y-105410000D01*
X77470000Y-105410000D02*
X85090000Y-105410000D01*
X85090000Y-105410000D02*
X85090000Y-107950000D01*
X85090000Y-107950000D02*
X78105000Y-107950000D01*
X78105000Y-107950000D02*
X77470000Y-107315000D01*
%TO.C,J4*%
X77978000Y-141859000D02*
X77978000Y-139954000D01*
X77978000Y-139954000D02*
X85598000Y-139954000D01*
X85598000Y-139954000D02*
X85598000Y-142494000D01*
X85598000Y-142494000D02*
X78613000Y-142494000D01*
X78613000Y-142494000D02*
X77978000Y-141859000D01*
%TO.C,J1*%
X98425000Y-119634000D02*
X100330000Y-119634000D01*
X100330000Y-119634000D02*
X100330000Y-129794000D01*
X100330000Y-129794000D02*
X97790000Y-129794000D01*
X97790000Y-129794000D02*
X97790000Y-120269000D01*
X97790000Y-120269000D02*
X98425000Y-119634000D01*
%TO.C,J12*%
X127635000Y-104902000D02*
X125730000Y-104902000D01*
X125730000Y-104902000D02*
X125730000Y-94742000D01*
X125730000Y-94742000D02*
X128270000Y-94742000D01*
X128270000Y-94742000D02*
X128270000Y-104267000D01*
X128270000Y-104267000D02*
X127635000Y-104902000D01*
%TO.C,J13*%
X125730000Y-108077000D02*
X126365000Y-107442000D01*
X125730000Y-112522000D02*
X125730000Y-108077000D01*
X128270000Y-112522000D02*
X125730000Y-112522000D01*
X128270000Y-107442000D02*
X128270000Y-112522000D01*
X126365000Y-107442000D02*
X128270000Y-107442000D01*
X157480000Y-107442000D02*
X157480000Y-112522000D01*
X155575000Y-107442000D02*
X157480000Y-107442000D01*
X154940000Y-108077000D02*
X155575000Y-107442000D01*
X154940000Y-112522000D02*
X154940000Y-108077000D01*
X157480000Y-112522000D02*
X154940000Y-112522000D01*
%TO.C,J10*%
X122301000Y-146050000D02*
X124206000Y-146050000D01*
X124206000Y-146050000D02*
X124206000Y-153670000D01*
X124206000Y-153670000D02*
X121666000Y-153670000D01*
X121666000Y-153670000D02*
X121666000Y-146685000D01*
X121666000Y-146685000D02*
X122301000Y-146050000D01*
%TO.C,C1*%
X147248000Y-123444000D02*
G75*
G03*
X147248000Y-123444000I-7000000J0D01*
G01*
X146261066Y-126511500D02*
X144861066Y-126511500D01*
X145561066Y-127211500D02*
X145561066Y-125811500D01*
%TD*%
%TO.C,REF\u002A\u002A*%
D11*
X82320952Y-106252380D02*
X82320952Y-105252380D01*
X82654285Y-105966666D01*
X82987619Y-105252380D01*
X82987619Y-106252380D01*
X83606666Y-106252380D02*
X83511428Y-106204761D01*
X83463809Y-106157142D01*
X83416190Y-106061904D01*
X83416190Y-105776190D01*
X83463809Y-105680952D01*
X83511428Y-105633333D01*
X83606666Y-105585714D01*
X83749523Y-105585714D01*
X83844761Y-105633333D01*
X83892380Y-105680952D01*
X83939999Y-105776190D01*
X83939999Y-106061904D01*
X83892380Y-106157142D01*
X83844761Y-106204761D01*
X83749523Y-106252380D01*
X83606666Y-106252380D01*
X84797142Y-105585714D02*
X84797142Y-106252380D01*
X84368571Y-105585714D02*
X84368571Y-106109523D01*
X84416190Y-106204761D01*
X84511428Y-106252380D01*
X84654285Y-106252380D01*
X84749523Y-106204761D01*
X84797142Y-106157142D01*
X85273333Y-105585714D02*
X85273333Y-106252380D01*
X85273333Y-105680952D02*
X85320952Y-105633333D01*
X85416190Y-105585714D01*
X85559047Y-105585714D01*
X85654285Y-105633333D01*
X85701904Y-105728571D01*
X85701904Y-106252380D01*
X86035238Y-105585714D02*
X86416190Y-105585714D01*
X86178095Y-105252380D02*
X86178095Y-106109523D01*
X86225714Y-106204761D01*
X86320952Y-106252380D01*
X86416190Y-106252380D01*
X86749523Y-106252380D02*
X86749523Y-105585714D01*
X86749523Y-105252380D02*
X86701904Y-105300000D01*
X86749523Y-105347619D01*
X86797142Y-105300000D01*
X86749523Y-105252380D01*
X86749523Y-105347619D01*
X87225714Y-105585714D02*
X87225714Y-106252380D01*
X87225714Y-105680952D02*
X87273333Y-105633333D01*
X87368571Y-105585714D01*
X87511428Y-105585714D01*
X87606666Y-105633333D01*
X87654285Y-105728571D01*
X87654285Y-106252380D01*
X88559047Y-105585714D02*
X88559047Y-106395238D01*
X88511428Y-106490476D01*
X88463809Y-106538095D01*
X88368571Y-106585714D01*
X88225714Y-106585714D01*
X88130476Y-106538095D01*
X88559047Y-106204761D02*
X88463809Y-106252380D01*
X88273333Y-106252380D01*
X88178095Y-106204761D01*
X88130476Y-106157142D01*
X88082857Y-106061904D01*
X88082857Y-105776190D01*
X88130476Y-105680952D01*
X88178095Y-105633333D01*
X88273333Y-105585714D01*
X88463809Y-105585714D01*
X88559047Y-105633333D01*
X89035238Y-106252380D02*
X89035238Y-105252380D01*
X89035238Y-105728571D02*
X89606666Y-105728571D01*
X89606666Y-106252380D02*
X89606666Y-105252380D01*
X90225714Y-106252380D02*
X90130476Y-106204761D01*
X90082857Y-106157142D01*
X90035238Y-106061904D01*
X90035238Y-105776190D01*
X90082857Y-105680952D01*
X90130476Y-105633333D01*
X90225714Y-105585714D01*
X90368571Y-105585714D01*
X90463809Y-105633333D01*
X90511428Y-105680952D01*
X90559047Y-105776190D01*
X90559047Y-106061904D01*
X90511428Y-106157142D01*
X90463809Y-106204761D01*
X90368571Y-106252380D01*
X90225714Y-106252380D01*
X91130476Y-106252380D02*
X91035238Y-106204761D01*
X90987619Y-106109523D01*
X90987619Y-105252380D01*
X91892380Y-106204761D02*
X91797142Y-106252380D01*
X91606666Y-106252380D01*
X91511428Y-106204761D01*
X91463809Y-106109523D01*
X91463809Y-105728571D01*
X91511428Y-105633333D01*
X91606666Y-105585714D01*
X91797142Y-105585714D01*
X91892380Y-105633333D01*
X91939999Y-105728571D01*
X91939999Y-105823809D01*
X91463809Y-105919047D01*
X92130476Y-106347619D02*
X92892380Y-106347619D01*
X93035238Y-105252380D02*
X93654285Y-105252380D01*
X93320952Y-105633333D01*
X93463809Y-105633333D01*
X93559047Y-105680952D01*
X93606666Y-105728571D01*
X93654285Y-105823809D01*
X93654285Y-106061904D01*
X93606666Y-106157142D01*
X93559047Y-106204761D01*
X93463809Y-106252380D01*
X93178095Y-106252380D01*
X93082857Y-106204761D01*
X93035238Y-106157142D01*
X94082857Y-106157142D02*
X94130476Y-106204761D01*
X94082857Y-106252380D01*
X94035238Y-106204761D01*
X94082857Y-106157142D01*
X94082857Y-106252380D01*
X94511428Y-105347619D02*
X94559047Y-105300000D01*
X94654285Y-105252380D01*
X94892380Y-105252380D01*
X94987619Y-105300000D01*
X95035238Y-105347619D01*
X95082857Y-105442857D01*
X95082857Y-105538095D01*
X95035238Y-105680952D01*
X94463809Y-106252380D01*
X95082857Y-106252380D01*
X95511428Y-106252380D02*
X95511428Y-105585714D01*
X95511428Y-105680952D02*
X95559047Y-105633333D01*
X95654285Y-105585714D01*
X95797142Y-105585714D01*
X95892380Y-105633333D01*
X95939999Y-105728571D01*
X95939999Y-106252380D01*
X95939999Y-105728571D02*
X95987619Y-105633333D01*
X96082857Y-105585714D01*
X96225714Y-105585714D01*
X96320952Y-105633333D01*
X96368571Y-105728571D01*
X96368571Y-106252380D01*
X96844761Y-106252380D02*
X96844761Y-105585714D01*
X96844761Y-105680952D02*
X96892380Y-105633333D01*
X96987619Y-105585714D01*
X97130476Y-105585714D01*
X97225714Y-105633333D01*
X97273333Y-105728571D01*
X97273333Y-106252380D01*
X97273333Y-105728571D02*
X97320952Y-105633333D01*
X97416190Y-105585714D01*
X97559047Y-105585714D01*
X97654285Y-105633333D01*
X97701904Y-105728571D01*
X97701904Y-106252380D01*
X97939999Y-106347619D02*
X98701904Y-106347619D01*
X98939999Y-106252380D02*
X98939999Y-105252380D01*
X99273333Y-105966666D01*
X99606666Y-105252380D01*
X99606666Y-106252380D01*
X99987619Y-105252380D02*
X100606666Y-105252380D01*
X100273333Y-105633333D01*
X100416190Y-105633333D01*
X100511428Y-105680952D01*
X100559047Y-105728571D01*
X100606666Y-105823809D01*
X100606666Y-106061904D01*
X100559047Y-106157142D01*
X100511428Y-106204761D01*
X100416190Y-106252380D01*
X100130476Y-106252380D01*
X100035238Y-106204761D01*
X99987619Y-106157142D01*
X90406666Y-102052380D02*
X90073333Y-101576190D01*
X89835238Y-102052380D02*
X89835238Y-101052380D01*
X90216190Y-101052380D01*
X90311428Y-101100000D01*
X90359047Y-101147619D01*
X90406666Y-101242857D01*
X90406666Y-101385714D01*
X90359047Y-101480952D01*
X90311428Y-101528571D01*
X90216190Y-101576190D01*
X89835238Y-101576190D01*
X90835238Y-101528571D02*
X91168571Y-101528571D01*
X91311428Y-102052380D02*
X90835238Y-102052380D01*
X90835238Y-101052380D01*
X91311428Y-101052380D01*
X92073333Y-101528571D02*
X91740000Y-101528571D01*
X91740000Y-102052380D02*
X91740000Y-101052380D01*
X92216190Y-101052380D01*
X92740000Y-101052380D02*
X92740000Y-101290476D01*
X92501904Y-101195238D02*
X92740000Y-101290476D01*
X92978095Y-101195238D01*
X92597142Y-101480952D02*
X92740000Y-101290476D01*
X92882857Y-101480952D01*
X93501904Y-101052380D02*
X93501904Y-101290476D01*
X93263809Y-101195238D02*
X93501904Y-101290476D01*
X93740000Y-101195238D01*
X93359047Y-101480952D02*
X93501904Y-101290476D01*
X93644761Y-101480952D01*
X82828952Y-151972380D02*
X82828952Y-150972380D01*
X83162285Y-151686666D01*
X83495619Y-150972380D01*
X83495619Y-151972380D01*
X84114666Y-151972380D02*
X84019428Y-151924761D01*
X83971809Y-151877142D01*
X83924190Y-151781904D01*
X83924190Y-151496190D01*
X83971809Y-151400952D01*
X84019428Y-151353333D01*
X84114666Y-151305714D01*
X84257523Y-151305714D01*
X84352761Y-151353333D01*
X84400380Y-151400952D01*
X84447999Y-151496190D01*
X84447999Y-151781904D01*
X84400380Y-151877142D01*
X84352761Y-151924761D01*
X84257523Y-151972380D01*
X84114666Y-151972380D01*
X85305142Y-151305714D02*
X85305142Y-151972380D01*
X84876571Y-151305714D02*
X84876571Y-151829523D01*
X84924190Y-151924761D01*
X85019428Y-151972380D01*
X85162285Y-151972380D01*
X85257523Y-151924761D01*
X85305142Y-151877142D01*
X85781333Y-151305714D02*
X85781333Y-151972380D01*
X85781333Y-151400952D02*
X85828952Y-151353333D01*
X85924190Y-151305714D01*
X86067047Y-151305714D01*
X86162285Y-151353333D01*
X86209904Y-151448571D01*
X86209904Y-151972380D01*
X86543238Y-151305714D02*
X86924190Y-151305714D01*
X86686095Y-150972380D02*
X86686095Y-151829523D01*
X86733714Y-151924761D01*
X86828952Y-151972380D01*
X86924190Y-151972380D01*
X87257523Y-151972380D02*
X87257523Y-151305714D01*
X87257523Y-150972380D02*
X87209904Y-151020000D01*
X87257523Y-151067619D01*
X87305142Y-151020000D01*
X87257523Y-150972380D01*
X87257523Y-151067619D01*
X87733714Y-151305714D02*
X87733714Y-151972380D01*
X87733714Y-151400952D02*
X87781333Y-151353333D01*
X87876571Y-151305714D01*
X88019428Y-151305714D01*
X88114666Y-151353333D01*
X88162285Y-151448571D01*
X88162285Y-151972380D01*
X89067047Y-151305714D02*
X89067047Y-152115238D01*
X89019428Y-152210476D01*
X88971809Y-152258095D01*
X88876571Y-152305714D01*
X88733714Y-152305714D01*
X88638476Y-152258095D01*
X89067047Y-151924761D02*
X88971809Y-151972380D01*
X88781333Y-151972380D01*
X88686095Y-151924761D01*
X88638476Y-151877142D01*
X88590857Y-151781904D01*
X88590857Y-151496190D01*
X88638476Y-151400952D01*
X88686095Y-151353333D01*
X88781333Y-151305714D01*
X88971809Y-151305714D01*
X89067047Y-151353333D01*
X89543238Y-151972380D02*
X89543238Y-150972380D01*
X89543238Y-151448571D02*
X90114666Y-151448571D01*
X90114666Y-151972380D02*
X90114666Y-150972380D01*
X90733714Y-151972380D02*
X90638476Y-151924761D01*
X90590857Y-151877142D01*
X90543238Y-151781904D01*
X90543238Y-151496190D01*
X90590857Y-151400952D01*
X90638476Y-151353333D01*
X90733714Y-151305714D01*
X90876571Y-151305714D01*
X90971809Y-151353333D01*
X91019428Y-151400952D01*
X91067047Y-151496190D01*
X91067047Y-151781904D01*
X91019428Y-151877142D01*
X90971809Y-151924761D01*
X90876571Y-151972380D01*
X90733714Y-151972380D01*
X91638476Y-151972380D02*
X91543238Y-151924761D01*
X91495619Y-151829523D01*
X91495619Y-150972380D01*
X92400380Y-151924761D02*
X92305142Y-151972380D01*
X92114666Y-151972380D01*
X92019428Y-151924761D01*
X91971809Y-151829523D01*
X91971809Y-151448571D01*
X92019428Y-151353333D01*
X92114666Y-151305714D01*
X92305142Y-151305714D01*
X92400380Y-151353333D01*
X92447999Y-151448571D01*
X92447999Y-151543809D01*
X91971809Y-151639047D01*
X92638476Y-152067619D02*
X93400380Y-152067619D01*
X93543238Y-150972380D02*
X94162285Y-150972380D01*
X93828952Y-151353333D01*
X93971809Y-151353333D01*
X94067047Y-151400952D01*
X94114666Y-151448571D01*
X94162285Y-151543809D01*
X94162285Y-151781904D01*
X94114666Y-151877142D01*
X94067047Y-151924761D01*
X93971809Y-151972380D01*
X93686095Y-151972380D01*
X93590857Y-151924761D01*
X93543238Y-151877142D01*
X94590857Y-151877142D02*
X94638476Y-151924761D01*
X94590857Y-151972380D01*
X94543238Y-151924761D01*
X94590857Y-151877142D01*
X94590857Y-151972380D01*
X95019428Y-151067619D02*
X95067047Y-151020000D01*
X95162285Y-150972380D01*
X95400380Y-150972380D01*
X95495619Y-151020000D01*
X95543238Y-151067619D01*
X95590857Y-151162857D01*
X95590857Y-151258095D01*
X95543238Y-151400952D01*
X94971809Y-151972380D01*
X95590857Y-151972380D01*
X96019428Y-151972380D02*
X96019428Y-151305714D01*
X96019428Y-151400952D02*
X96067047Y-151353333D01*
X96162285Y-151305714D01*
X96305142Y-151305714D01*
X96400380Y-151353333D01*
X96447999Y-151448571D01*
X96447999Y-151972380D01*
X96447999Y-151448571D02*
X96495619Y-151353333D01*
X96590857Y-151305714D01*
X96733714Y-151305714D01*
X96828952Y-151353333D01*
X96876571Y-151448571D01*
X96876571Y-151972380D01*
X97352761Y-151972380D02*
X97352761Y-151305714D01*
X97352761Y-151400952D02*
X97400380Y-151353333D01*
X97495619Y-151305714D01*
X97638476Y-151305714D01*
X97733714Y-151353333D01*
X97781333Y-151448571D01*
X97781333Y-151972380D01*
X97781333Y-151448571D02*
X97828952Y-151353333D01*
X97924190Y-151305714D01*
X98067047Y-151305714D01*
X98162285Y-151353333D01*
X98209904Y-151448571D01*
X98209904Y-151972380D01*
X98447999Y-152067619D02*
X99209904Y-152067619D01*
X99447999Y-151972380D02*
X99447999Y-150972380D01*
X99781333Y-151686666D01*
X100114666Y-150972380D01*
X100114666Y-151972380D01*
X100495619Y-150972380D02*
X101114666Y-150972380D01*
X100781333Y-151353333D01*
X100924190Y-151353333D01*
X101019428Y-151400952D01*
X101067047Y-151448571D01*
X101114666Y-151543809D01*
X101114666Y-151781904D01*
X101067047Y-151877142D01*
X101019428Y-151924761D01*
X100924190Y-151972380D01*
X100638476Y-151972380D01*
X100543238Y-151924761D01*
X100495619Y-151877142D01*
X90914666Y-147772380D02*
X90581333Y-147296190D01*
X90343238Y-147772380D02*
X90343238Y-146772380D01*
X90724190Y-146772380D01*
X90819428Y-146820000D01*
X90867047Y-146867619D01*
X90914666Y-146962857D01*
X90914666Y-147105714D01*
X90867047Y-147200952D01*
X90819428Y-147248571D01*
X90724190Y-147296190D01*
X90343238Y-147296190D01*
X91343238Y-147248571D02*
X91676571Y-147248571D01*
X91819428Y-147772380D02*
X91343238Y-147772380D01*
X91343238Y-146772380D01*
X91819428Y-146772380D01*
X92581333Y-147248571D02*
X92248000Y-147248571D01*
X92248000Y-147772380D02*
X92248000Y-146772380D01*
X92724190Y-146772380D01*
X93248000Y-146772380D02*
X93248000Y-147010476D01*
X93009904Y-146915238D02*
X93248000Y-147010476D01*
X93486095Y-146915238D01*
X93105142Y-147200952D02*
X93248000Y-147010476D01*
X93390857Y-147200952D01*
X94009904Y-146772380D02*
X94009904Y-147010476D01*
X93771809Y-146915238D02*
X94009904Y-147010476D01*
X94248000Y-146915238D01*
X93867047Y-147200952D02*
X94009904Y-147010476D01*
X94152761Y-147200952D01*
X132612952Y-160100380D02*
X132612952Y-159100380D01*
X132946285Y-159814666D01*
X133279619Y-159100380D01*
X133279619Y-160100380D01*
X133898666Y-160100380D02*
X133803428Y-160052761D01*
X133755809Y-160005142D01*
X133708190Y-159909904D01*
X133708190Y-159624190D01*
X133755809Y-159528952D01*
X133803428Y-159481333D01*
X133898666Y-159433714D01*
X134041523Y-159433714D01*
X134136761Y-159481333D01*
X134184380Y-159528952D01*
X134232000Y-159624190D01*
X134232000Y-159909904D01*
X134184380Y-160005142D01*
X134136761Y-160052761D01*
X134041523Y-160100380D01*
X133898666Y-160100380D01*
X135089142Y-159433714D02*
X135089142Y-160100380D01*
X134660571Y-159433714D02*
X134660571Y-159957523D01*
X134708190Y-160052761D01*
X134803428Y-160100380D01*
X134946285Y-160100380D01*
X135041523Y-160052761D01*
X135089142Y-160005142D01*
X135565333Y-159433714D02*
X135565333Y-160100380D01*
X135565333Y-159528952D02*
X135612952Y-159481333D01*
X135708190Y-159433714D01*
X135851047Y-159433714D01*
X135946285Y-159481333D01*
X135993904Y-159576571D01*
X135993904Y-160100380D01*
X136327238Y-159433714D02*
X136708190Y-159433714D01*
X136470095Y-159100380D02*
X136470095Y-159957523D01*
X136517714Y-160052761D01*
X136612952Y-160100380D01*
X136708190Y-160100380D01*
X137041523Y-160100380D02*
X137041523Y-159433714D01*
X137041523Y-159100380D02*
X136993904Y-159148000D01*
X137041523Y-159195619D01*
X137089142Y-159148000D01*
X137041523Y-159100380D01*
X137041523Y-159195619D01*
X137517714Y-159433714D02*
X137517714Y-160100380D01*
X137517714Y-159528952D02*
X137565333Y-159481333D01*
X137660571Y-159433714D01*
X137803428Y-159433714D01*
X137898666Y-159481333D01*
X137946285Y-159576571D01*
X137946285Y-160100380D01*
X138851047Y-159433714D02*
X138851047Y-160243238D01*
X138803428Y-160338476D01*
X138755809Y-160386095D01*
X138660571Y-160433714D01*
X138517714Y-160433714D01*
X138422476Y-160386095D01*
X138851047Y-160052761D02*
X138755809Y-160100380D01*
X138565333Y-160100380D01*
X138470095Y-160052761D01*
X138422476Y-160005142D01*
X138374857Y-159909904D01*
X138374857Y-159624190D01*
X138422476Y-159528952D01*
X138470095Y-159481333D01*
X138565333Y-159433714D01*
X138755809Y-159433714D01*
X138851047Y-159481333D01*
X139327238Y-160100380D02*
X139327238Y-159100380D01*
X139327238Y-159576571D02*
X139898666Y-159576571D01*
X139898666Y-160100380D02*
X139898666Y-159100380D01*
X140517714Y-160100380D02*
X140422476Y-160052761D01*
X140374857Y-160005142D01*
X140327238Y-159909904D01*
X140327238Y-159624190D01*
X140374857Y-159528952D01*
X140422476Y-159481333D01*
X140517714Y-159433714D01*
X140660571Y-159433714D01*
X140755809Y-159481333D01*
X140803428Y-159528952D01*
X140851047Y-159624190D01*
X140851047Y-159909904D01*
X140803428Y-160005142D01*
X140755809Y-160052761D01*
X140660571Y-160100380D01*
X140517714Y-160100380D01*
X141422476Y-160100380D02*
X141327238Y-160052761D01*
X141279619Y-159957523D01*
X141279619Y-159100380D01*
X142184380Y-160052761D02*
X142089142Y-160100380D01*
X141898666Y-160100380D01*
X141803428Y-160052761D01*
X141755809Y-159957523D01*
X141755809Y-159576571D01*
X141803428Y-159481333D01*
X141898666Y-159433714D01*
X142089142Y-159433714D01*
X142184380Y-159481333D01*
X142232000Y-159576571D01*
X142232000Y-159671809D01*
X141755809Y-159767047D01*
X142422476Y-160195619D02*
X143184380Y-160195619D01*
X143327238Y-159100380D02*
X143946285Y-159100380D01*
X143612952Y-159481333D01*
X143755809Y-159481333D01*
X143851047Y-159528952D01*
X143898666Y-159576571D01*
X143946285Y-159671809D01*
X143946285Y-159909904D01*
X143898666Y-160005142D01*
X143851047Y-160052761D01*
X143755809Y-160100380D01*
X143470095Y-160100380D01*
X143374857Y-160052761D01*
X143327238Y-160005142D01*
X144374857Y-160005142D02*
X144422476Y-160052761D01*
X144374857Y-160100380D01*
X144327238Y-160052761D01*
X144374857Y-160005142D01*
X144374857Y-160100380D01*
X144803428Y-159195619D02*
X144851047Y-159148000D01*
X144946285Y-159100380D01*
X145184380Y-159100380D01*
X145279619Y-159148000D01*
X145327238Y-159195619D01*
X145374857Y-159290857D01*
X145374857Y-159386095D01*
X145327238Y-159528952D01*
X144755809Y-160100380D01*
X145374857Y-160100380D01*
X145803428Y-160100380D02*
X145803428Y-159433714D01*
X145803428Y-159528952D02*
X145851047Y-159481333D01*
X145946285Y-159433714D01*
X146089142Y-159433714D01*
X146184380Y-159481333D01*
X146232000Y-159576571D01*
X146232000Y-160100380D01*
X146232000Y-159576571D02*
X146279619Y-159481333D01*
X146374857Y-159433714D01*
X146517714Y-159433714D01*
X146612952Y-159481333D01*
X146660571Y-159576571D01*
X146660571Y-160100380D01*
X147136761Y-160100380D02*
X147136761Y-159433714D01*
X147136761Y-159528952D02*
X147184380Y-159481333D01*
X147279619Y-159433714D01*
X147422476Y-159433714D01*
X147517714Y-159481333D01*
X147565333Y-159576571D01*
X147565333Y-160100380D01*
X147565333Y-159576571D02*
X147612952Y-159481333D01*
X147708190Y-159433714D01*
X147851047Y-159433714D01*
X147946285Y-159481333D01*
X147993904Y-159576571D01*
X147993904Y-160100380D01*
X148232000Y-160195619D02*
X148993904Y-160195619D01*
X149232000Y-160100380D02*
X149232000Y-159100380D01*
X149565333Y-159814666D01*
X149898666Y-159100380D01*
X149898666Y-160100380D01*
X150279619Y-159100380D02*
X150898666Y-159100380D01*
X150565333Y-159481333D01*
X150708190Y-159481333D01*
X150803428Y-159528952D01*
X150851047Y-159576571D01*
X150898666Y-159671809D01*
X150898666Y-159909904D01*
X150851047Y-160005142D01*
X150803428Y-160052761D01*
X150708190Y-160100380D01*
X150422476Y-160100380D01*
X150327238Y-160052761D01*
X150279619Y-160005142D01*
X140698666Y-155900380D02*
X140365333Y-155424190D01*
X140127238Y-155900380D02*
X140127238Y-154900380D01*
X140508190Y-154900380D01*
X140603428Y-154948000D01*
X140651047Y-154995619D01*
X140698666Y-155090857D01*
X140698666Y-155233714D01*
X140651047Y-155328952D01*
X140603428Y-155376571D01*
X140508190Y-155424190D01*
X140127238Y-155424190D01*
X141127238Y-155376571D02*
X141460571Y-155376571D01*
X141603428Y-155900380D02*
X141127238Y-155900380D01*
X141127238Y-154900380D01*
X141603428Y-154900380D01*
X142365333Y-155376571D02*
X142032000Y-155376571D01*
X142032000Y-155900380D02*
X142032000Y-154900380D01*
X142508190Y-154900380D01*
X143032000Y-154900380D02*
X143032000Y-155138476D01*
X142793904Y-155043238D02*
X143032000Y-155138476D01*
X143270095Y-155043238D01*
X142889142Y-155328952D02*
X143032000Y-155138476D01*
X143174857Y-155328952D01*
X143793904Y-154900380D02*
X143793904Y-155138476D01*
X143555809Y-155043238D02*
X143793904Y-155138476D01*
X144032000Y-155043238D01*
X143651047Y-155328952D02*
X143793904Y-155138476D01*
X143936761Y-155328952D01*
X132612952Y-98124380D02*
X132612952Y-97124380D01*
X132946285Y-97838666D01*
X133279619Y-97124380D01*
X133279619Y-98124380D01*
X133898666Y-98124380D02*
X133803428Y-98076761D01*
X133755809Y-98029142D01*
X133708190Y-97933904D01*
X133708190Y-97648190D01*
X133755809Y-97552952D01*
X133803428Y-97505333D01*
X133898666Y-97457714D01*
X134041523Y-97457714D01*
X134136761Y-97505333D01*
X134184380Y-97552952D01*
X134232000Y-97648190D01*
X134232000Y-97933904D01*
X134184380Y-98029142D01*
X134136761Y-98076761D01*
X134041523Y-98124380D01*
X133898666Y-98124380D01*
X135089142Y-97457714D02*
X135089142Y-98124380D01*
X134660571Y-97457714D02*
X134660571Y-97981523D01*
X134708190Y-98076761D01*
X134803428Y-98124380D01*
X134946285Y-98124380D01*
X135041523Y-98076761D01*
X135089142Y-98029142D01*
X135565333Y-97457714D02*
X135565333Y-98124380D01*
X135565333Y-97552952D02*
X135612952Y-97505333D01*
X135708190Y-97457714D01*
X135851047Y-97457714D01*
X135946285Y-97505333D01*
X135993904Y-97600571D01*
X135993904Y-98124380D01*
X136327238Y-97457714D02*
X136708190Y-97457714D01*
X136470095Y-97124380D02*
X136470095Y-97981523D01*
X136517714Y-98076761D01*
X136612952Y-98124380D01*
X136708190Y-98124380D01*
X137041523Y-98124380D02*
X137041523Y-97457714D01*
X137041523Y-97124380D02*
X136993904Y-97172000D01*
X137041523Y-97219619D01*
X137089142Y-97172000D01*
X137041523Y-97124380D01*
X137041523Y-97219619D01*
X137517714Y-97457714D02*
X137517714Y-98124380D01*
X137517714Y-97552952D02*
X137565333Y-97505333D01*
X137660571Y-97457714D01*
X137803428Y-97457714D01*
X137898666Y-97505333D01*
X137946285Y-97600571D01*
X137946285Y-98124380D01*
X138851047Y-97457714D02*
X138851047Y-98267238D01*
X138803428Y-98362476D01*
X138755809Y-98410095D01*
X138660571Y-98457714D01*
X138517714Y-98457714D01*
X138422476Y-98410095D01*
X138851047Y-98076761D02*
X138755809Y-98124380D01*
X138565333Y-98124380D01*
X138470095Y-98076761D01*
X138422476Y-98029142D01*
X138374857Y-97933904D01*
X138374857Y-97648190D01*
X138422476Y-97552952D01*
X138470095Y-97505333D01*
X138565333Y-97457714D01*
X138755809Y-97457714D01*
X138851047Y-97505333D01*
X139327238Y-98124380D02*
X139327238Y-97124380D01*
X139327238Y-97600571D02*
X139898666Y-97600571D01*
X139898666Y-98124380D02*
X139898666Y-97124380D01*
X140517714Y-98124380D02*
X140422476Y-98076761D01*
X140374857Y-98029142D01*
X140327238Y-97933904D01*
X140327238Y-97648190D01*
X140374857Y-97552952D01*
X140422476Y-97505333D01*
X140517714Y-97457714D01*
X140660571Y-97457714D01*
X140755809Y-97505333D01*
X140803428Y-97552952D01*
X140851047Y-97648190D01*
X140851047Y-97933904D01*
X140803428Y-98029142D01*
X140755809Y-98076761D01*
X140660571Y-98124380D01*
X140517714Y-98124380D01*
X141422476Y-98124380D02*
X141327238Y-98076761D01*
X141279619Y-97981523D01*
X141279619Y-97124380D01*
X142184380Y-98076761D02*
X142089142Y-98124380D01*
X141898666Y-98124380D01*
X141803428Y-98076761D01*
X141755809Y-97981523D01*
X141755809Y-97600571D01*
X141803428Y-97505333D01*
X141898666Y-97457714D01*
X142089142Y-97457714D01*
X142184380Y-97505333D01*
X142232000Y-97600571D01*
X142232000Y-97695809D01*
X141755809Y-97791047D01*
X142422476Y-98219619D02*
X143184380Y-98219619D01*
X143327238Y-97124380D02*
X143946285Y-97124380D01*
X143612952Y-97505333D01*
X143755809Y-97505333D01*
X143851047Y-97552952D01*
X143898666Y-97600571D01*
X143946285Y-97695809D01*
X143946285Y-97933904D01*
X143898666Y-98029142D01*
X143851047Y-98076761D01*
X143755809Y-98124380D01*
X143470095Y-98124380D01*
X143374857Y-98076761D01*
X143327238Y-98029142D01*
X144374857Y-98029142D02*
X144422476Y-98076761D01*
X144374857Y-98124380D01*
X144327238Y-98076761D01*
X144374857Y-98029142D01*
X144374857Y-98124380D01*
X144803428Y-97219619D02*
X144851047Y-97172000D01*
X144946285Y-97124380D01*
X145184380Y-97124380D01*
X145279619Y-97172000D01*
X145327238Y-97219619D01*
X145374857Y-97314857D01*
X145374857Y-97410095D01*
X145327238Y-97552952D01*
X144755809Y-98124380D01*
X145374857Y-98124380D01*
X145803428Y-98124380D02*
X145803428Y-97457714D01*
X145803428Y-97552952D02*
X145851047Y-97505333D01*
X145946285Y-97457714D01*
X146089142Y-97457714D01*
X146184380Y-97505333D01*
X146232000Y-97600571D01*
X146232000Y-98124380D01*
X146232000Y-97600571D02*
X146279619Y-97505333D01*
X146374857Y-97457714D01*
X146517714Y-97457714D01*
X146612952Y-97505333D01*
X146660571Y-97600571D01*
X146660571Y-98124380D01*
X147136761Y-98124380D02*
X147136761Y-97457714D01*
X147136761Y-97552952D02*
X147184380Y-97505333D01*
X147279619Y-97457714D01*
X147422476Y-97457714D01*
X147517714Y-97505333D01*
X147565333Y-97600571D01*
X147565333Y-98124380D01*
X147565333Y-97600571D02*
X147612952Y-97505333D01*
X147708190Y-97457714D01*
X147851047Y-97457714D01*
X147946285Y-97505333D01*
X147993904Y-97600571D01*
X147993904Y-98124380D01*
X148232000Y-98219619D02*
X148993904Y-98219619D01*
X149232000Y-98124380D02*
X149232000Y-97124380D01*
X149565333Y-97838666D01*
X149898666Y-97124380D01*
X149898666Y-98124380D01*
X150279619Y-97124380D02*
X150898666Y-97124380D01*
X150565333Y-97505333D01*
X150708190Y-97505333D01*
X150803428Y-97552952D01*
X150851047Y-97600571D01*
X150898666Y-97695809D01*
X150898666Y-97933904D01*
X150851047Y-98029142D01*
X150803428Y-98076761D01*
X150708190Y-98124380D01*
X150422476Y-98124380D01*
X150327238Y-98076761D01*
X150279619Y-98029142D01*
X140698666Y-93924380D02*
X140365333Y-93448190D01*
X140127238Y-93924380D02*
X140127238Y-92924380D01*
X140508190Y-92924380D01*
X140603428Y-92972000D01*
X140651047Y-93019619D01*
X140698666Y-93114857D01*
X140698666Y-93257714D01*
X140651047Y-93352952D01*
X140603428Y-93400571D01*
X140508190Y-93448190D01*
X140127238Y-93448190D01*
X141127238Y-93400571D02*
X141460571Y-93400571D01*
X141603428Y-93924380D02*
X141127238Y-93924380D01*
X141127238Y-92924380D01*
X141603428Y-92924380D01*
X142365333Y-93400571D02*
X142032000Y-93400571D01*
X142032000Y-93924380D02*
X142032000Y-92924380D01*
X142508190Y-92924380D01*
X143032000Y-92924380D02*
X143032000Y-93162476D01*
X142793904Y-93067238D02*
X143032000Y-93162476D01*
X143270095Y-93067238D01*
X142889142Y-93352952D02*
X143032000Y-93162476D01*
X143174857Y-93352952D01*
X143793904Y-92924380D02*
X143793904Y-93162476D01*
X143555809Y-93067238D02*
X143793904Y-93162476D01*
X144032000Y-93067238D01*
X143651047Y-93352952D02*
X143793904Y-93162476D01*
X143936761Y-93352952D01*
%TO.C,J21*%
X123674666Y-130798380D02*
X123579428Y-130750761D01*
X123531809Y-130655523D01*
X123531809Y-129798380D01*
X124436571Y-130750761D02*
X124341333Y-130798380D01*
X124150857Y-130798380D01*
X124055619Y-130750761D01*
X124008000Y-130655523D01*
X124008000Y-130274571D01*
X124055619Y-130179333D01*
X124150857Y-130131714D01*
X124341333Y-130131714D01*
X124436571Y-130179333D01*
X124484190Y-130274571D01*
X124484190Y-130369809D01*
X124008000Y-130465047D01*
X125341333Y-130798380D02*
X125341333Y-129798380D01*
X125341333Y-130750761D02*
X125246095Y-130798380D01*
X125055619Y-130798380D01*
X124960380Y-130750761D01*
X124912761Y-130703142D01*
X124865142Y-130607904D01*
X124865142Y-130322190D01*
X124912761Y-130226952D01*
X124960380Y-130179333D01*
X125055619Y-130131714D01*
X125246095Y-130131714D01*
X125341333Y-130179333D01*
X125769904Y-130750761D02*
X125865142Y-130798380D01*
X126055619Y-130798380D01*
X126150857Y-130750761D01*
X126198476Y-130655523D01*
X126198476Y-130607904D01*
X126150857Y-130512666D01*
X126055619Y-130465047D01*
X125912761Y-130465047D01*
X125817523Y-130417428D01*
X125769904Y-130322190D01*
X125769904Y-130274571D01*
X125817523Y-130179333D01*
X125912761Y-130131714D01*
X126055619Y-130131714D01*
X126150857Y-130179333D01*
X126388952Y-130893619D02*
X127150857Y-130893619D01*
X127341333Y-130750761D02*
X127436571Y-130798380D01*
X127627047Y-130798380D01*
X127722285Y-130750761D01*
X127769904Y-130655523D01*
X127769904Y-130607904D01*
X127722285Y-130512666D01*
X127627047Y-130465047D01*
X127484190Y-130465047D01*
X127388952Y-130417428D01*
X127341333Y-130322190D01*
X127341333Y-130274571D01*
X127388952Y-130179333D01*
X127484190Y-130131714D01*
X127627047Y-130131714D01*
X127722285Y-130179333D01*
X128055619Y-130131714D02*
X128436571Y-130131714D01*
X128198476Y-129798380D02*
X128198476Y-130655523D01*
X128246095Y-130750761D01*
X128341333Y-130798380D01*
X128436571Y-130798380D01*
X129198476Y-130798380D02*
X129198476Y-130274571D01*
X129150857Y-130179333D01*
X129055619Y-130131714D01*
X128865142Y-130131714D01*
X128769904Y-130179333D01*
X129198476Y-130750761D02*
X129103238Y-130798380D01*
X128865142Y-130798380D01*
X128769904Y-130750761D01*
X128722285Y-130655523D01*
X128722285Y-130560285D01*
X128769904Y-130465047D01*
X128865142Y-130417428D01*
X129103238Y-130417428D01*
X129198476Y-130369809D01*
X129531809Y-130131714D02*
X129912761Y-130131714D01*
X129674666Y-129798380D02*
X129674666Y-130655523D01*
X129722285Y-130750761D01*
X129817523Y-130798380D01*
X129912761Y-130798380D01*
X130674666Y-130131714D02*
X130674666Y-130798380D01*
X130246095Y-130131714D02*
X130246095Y-130655523D01*
X130293714Y-130750761D01*
X130388952Y-130798380D01*
X130531809Y-130798380D01*
X130627047Y-130750761D01*
X130674666Y-130703142D01*
X131103238Y-130750761D02*
X131198476Y-130798380D01*
X131388952Y-130798380D01*
X131484190Y-130750761D01*
X131531809Y-130655523D01*
X131531809Y-130607904D01*
X131484190Y-130512666D01*
X131388952Y-130465047D01*
X131246095Y-130465047D01*
X131150857Y-130417428D01*
X131103238Y-130322190D01*
X131103238Y-130274571D01*
X131150857Y-130179333D01*
X131246095Y-130131714D01*
X131388952Y-130131714D01*
X131484190Y-130179333D01*
X126960380Y-125015523D02*
X127674666Y-125015523D01*
X127817523Y-125063142D01*
X127912761Y-125158380D01*
X127960380Y-125301238D01*
X127960380Y-125396476D01*
X127055619Y-124586952D02*
X127008000Y-124539333D01*
X126960380Y-124444095D01*
X126960380Y-124206000D01*
X127008000Y-124110761D01*
X127055619Y-124063142D01*
X127150857Y-124015523D01*
X127246095Y-124015523D01*
X127388952Y-124063142D01*
X127960380Y-124634571D01*
X127960380Y-124015523D01*
X127960380Y-123063142D02*
X127960380Y-123634571D01*
X127960380Y-123348857D02*
X126960380Y-123348857D01*
X127103238Y-123444095D01*
X127198476Y-123539333D01*
X127246095Y-123634571D01*
%TO.C,J20*%
X77636952Y-158670380D02*
X77636952Y-158003714D01*
X77636952Y-157670380D02*
X77589333Y-157718000D01*
X77636952Y-157765619D01*
X77684571Y-157718000D01*
X77636952Y-157670380D01*
X77636952Y-157765619D01*
X78113142Y-158003714D02*
X78113142Y-158670380D01*
X78113142Y-158098952D02*
X78160761Y-158051333D01*
X78256000Y-158003714D01*
X78398857Y-158003714D01*
X78494095Y-158051333D01*
X78541714Y-158146571D01*
X78541714Y-158670380D01*
X78779809Y-158765619D02*
X79541714Y-158765619D01*
X79636952Y-157670380D02*
X79970285Y-158670380D01*
X80303619Y-157670380D01*
X81065523Y-158622761D02*
X80970285Y-158670380D01*
X80779809Y-158670380D01*
X80684571Y-158622761D01*
X80636952Y-158575142D01*
X80589333Y-158479904D01*
X80589333Y-158194190D01*
X80636952Y-158098952D01*
X80684571Y-158051333D01*
X80779809Y-158003714D01*
X80970285Y-158003714D01*
X81065523Y-158051333D01*
X81922666Y-158622761D02*
X81827428Y-158670380D01*
X81636952Y-158670380D01*
X81541714Y-158622761D01*
X81494095Y-158575142D01*
X81446476Y-158479904D01*
X81446476Y-158194190D01*
X81494095Y-158098952D01*
X81541714Y-158051333D01*
X81636952Y-158003714D01*
X81827428Y-158003714D01*
X81922666Y-158051333D01*
X79208380Y-154987523D02*
X79922666Y-154987523D01*
X80065523Y-155035142D01*
X80160761Y-155130380D01*
X80208380Y-155273238D01*
X80208380Y-155368476D01*
X79303619Y-154558952D02*
X79256000Y-154511333D01*
X79208380Y-154416095D01*
X79208380Y-154178000D01*
X79256000Y-154082761D01*
X79303619Y-154035142D01*
X79398857Y-153987523D01*
X79494095Y-153987523D01*
X79636952Y-154035142D01*
X80208380Y-154606571D01*
X80208380Y-153987523D01*
X79208380Y-153368476D02*
X79208380Y-153273238D01*
X79256000Y-153178000D01*
X79303619Y-153130380D01*
X79398857Y-153082761D01*
X79589333Y-153035142D01*
X79827428Y-153035142D01*
X80017904Y-153082761D01*
X80113142Y-153130380D01*
X80160761Y-153178000D01*
X80208380Y-153273238D01*
X80208380Y-153368476D01*
X80160761Y-153463714D01*
X80113142Y-153511333D01*
X80017904Y-153558952D01*
X79827428Y-153606571D01*
X79589333Y-153606571D01*
X79398857Y-153558952D01*
X79303619Y-153511333D01*
X79256000Y-153463714D01*
X79208380Y-153368476D01*
%TO.C,J19*%
X98464952Y-158670380D02*
X98464952Y-158003714D01*
X98464952Y-157670380D02*
X98417333Y-157718000D01*
X98464952Y-157765619D01*
X98512571Y-157718000D01*
X98464952Y-157670380D01*
X98464952Y-157765619D01*
X98941142Y-158003714D02*
X98941142Y-158670380D01*
X98941142Y-158098952D02*
X98988761Y-158051333D01*
X99084000Y-158003714D01*
X99226857Y-158003714D01*
X99322095Y-158051333D01*
X99369714Y-158146571D01*
X99369714Y-158670380D01*
X99607809Y-158765619D02*
X100369714Y-158765619D01*
X100464952Y-157670380D02*
X100798285Y-158670380D01*
X101131619Y-157670380D01*
X101893523Y-158622761D02*
X101798285Y-158670380D01*
X101607809Y-158670380D01*
X101512571Y-158622761D01*
X101464952Y-158575142D01*
X101417333Y-158479904D01*
X101417333Y-158194190D01*
X101464952Y-158098952D01*
X101512571Y-158051333D01*
X101607809Y-158003714D01*
X101798285Y-158003714D01*
X101893523Y-158051333D01*
X102750666Y-158622761D02*
X102655428Y-158670380D01*
X102464952Y-158670380D01*
X102369714Y-158622761D01*
X102322095Y-158575142D01*
X102274476Y-158479904D01*
X102274476Y-158194190D01*
X102322095Y-158098952D01*
X102369714Y-158051333D01*
X102464952Y-158003714D01*
X102655428Y-158003714D01*
X102750666Y-158051333D01*
X100036380Y-154987523D02*
X100750666Y-154987523D01*
X100893523Y-155035142D01*
X100988761Y-155130380D01*
X101036380Y-155273238D01*
X101036380Y-155368476D01*
X101036380Y-153987523D02*
X101036380Y-154558952D01*
X101036380Y-154273238D02*
X100036380Y-154273238D01*
X100179238Y-154368476D01*
X100274476Y-154463714D01*
X100322095Y-154558952D01*
X101036380Y-153511333D02*
X101036380Y-153320857D01*
X100988761Y-153225619D01*
X100941142Y-153178000D01*
X100798285Y-153082761D01*
X100607809Y-153035142D01*
X100226857Y-153035142D01*
X100131619Y-153082761D01*
X100084000Y-153130380D01*
X100036380Y-153225619D01*
X100036380Y-153416095D01*
X100084000Y-153511333D01*
X100131619Y-153558952D01*
X100226857Y-153606571D01*
X100464952Y-153606571D01*
X100560190Y-153558952D01*
X100607809Y-153511333D01*
X100655428Y-153416095D01*
X100655428Y-153225619D01*
X100607809Y-153130380D01*
X100560190Y-153082761D01*
X100464952Y-153035142D01*
%TO.C,J18*%
X77636952Y-99234380D02*
X77636952Y-98567714D01*
X77636952Y-98234380D02*
X77589333Y-98282000D01*
X77636952Y-98329619D01*
X77684571Y-98282000D01*
X77636952Y-98234380D01*
X77636952Y-98329619D01*
X78113142Y-98567714D02*
X78113142Y-99234380D01*
X78113142Y-98662952D02*
X78160761Y-98615333D01*
X78256000Y-98567714D01*
X78398857Y-98567714D01*
X78494095Y-98615333D01*
X78541714Y-98710571D01*
X78541714Y-99234380D01*
X78779809Y-99329619D02*
X79541714Y-99329619D01*
X79636952Y-98234380D02*
X79970285Y-99234380D01*
X80303619Y-98234380D01*
X81065523Y-99186761D02*
X80970285Y-99234380D01*
X80779809Y-99234380D01*
X80684571Y-99186761D01*
X80636952Y-99139142D01*
X80589333Y-99043904D01*
X80589333Y-98758190D01*
X80636952Y-98662952D01*
X80684571Y-98615333D01*
X80779809Y-98567714D01*
X80970285Y-98567714D01*
X81065523Y-98615333D01*
X81922666Y-99186761D02*
X81827428Y-99234380D01*
X81636952Y-99234380D01*
X81541714Y-99186761D01*
X81494095Y-99139142D01*
X81446476Y-99043904D01*
X81446476Y-98758190D01*
X81494095Y-98662952D01*
X81541714Y-98615333D01*
X81636952Y-98567714D01*
X81827428Y-98567714D01*
X81922666Y-98615333D01*
X79208380Y-95551523D02*
X79922666Y-95551523D01*
X80065523Y-95599142D01*
X80160761Y-95694380D01*
X80208380Y-95837238D01*
X80208380Y-95932476D01*
X80208380Y-94551523D02*
X80208380Y-95122952D01*
X80208380Y-94837238D02*
X79208380Y-94837238D01*
X79351238Y-94932476D01*
X79446476Y-95027714D01*
X79494095Y-95122952D01*
X79636952Y-93980095D02*
X79589333Y-94075333D01*
X79541714Y-94122952D01*
X79446476Y-94170571D01*
X79398857Y-94170571D01*
X79303619Y-94122952D01*
X79256000Y-94075333D01*
X79208380Y-93980095D01*
X79208380Y-93789619D01*
X79256000Y-93694380D01*
X79303619Y-93646761D01*
X79398857Y-93599142D01*
X79446476Y-93599142D01*
X79541714Y-93646761D01*
X79589333Y-93694380D01*
X79636952Y-93789619D01*
X79636952Y-93980095D01*
X79684571Y-94075333D01*
X79732190Y-94122952D01*
X79827428Y-94170571D01*
X80017904Y-94170571D01*
X80113142Y-94122952D01*
X80160761Y-94075333D01*
X80208380Y-93980095D01*
X80208380Y-93789619D01*
X80160761Y-93694380D01*
X80113142Y-93646761D01*
X80017904Y-93599142D01*
X79827428Y-93599142D01*
X79732190Y-93646761D01*
X79684571Y-93694380D01*
X79636952Y-93789619D01*
%TO.C,J17*%
X95512571Y-98234380D02*
X96131619Y-98234380D01*
X95798285Y-98615333D01*
X95941142Y-98615333D01*
X96036380Y-98662952D01*
X96084000Y-98710571D01*
X96131619Y-98805809D01*
X96131619Y-99043904D01*
X96084000Y-99139142D01*
X96036380Y-99186761D01*
X95941142Y-99234380D01*
X95655428Y-99234380D01*
X95560190Y-99186761D01*
X95512571Y-99139142D01*
X96560190Y-99139142D02*
X96607809Y-99186761D01*
X96560190Y-99234380D01*
X96512571Y-99186761D01*
X96560190Y-99139142D01*
X96560190Y-99234380D01*
X96941142Y-98234380D02*
X97560190Y-98234380D01*
X97226857Y-98615333D01*
X97369714Y-98615333D01*
X97464952Y-98662952D01*
X97512571Y-98710571D01*
X97560190Y-98805809D01*
X97560190Y-99043904D01*
X97512571Y-99139142D01*
X97464952Y-99186761D01*
X97369714Y-99234380D01*
X97084000Y-99234380D01*
X96988761Y-99186761D01*
X96941142Y-99139142D01*
X97893523Y-98567714D02*
X98131619Y-99234380D01*
X98369714Y-98567714D01*
X98512571Y-99329619D02*
X99274476Y-99329619D01*
X99464952Y-99186761D02*
X99560190Y-99234380D01*
X99750666Y-99234380D01*
X99845904Y-99186761D01*
X99893523Y-99091523D01*
X99893523Y-99043904D01*
X99845904Y-98948666D01*
X99750666Y-98901047D01*
X99607809Y-98901047D01*
X99512571Y-98853428D01*
X99464952Y-98758190D01*
X99464952Y-98710571D01*
X99512571Y-98615333D01*
X99607809Y-98567714D01*
X99750666Y-98567714D01*
X99845904Y-98615333D01*
X100226857Y-98567714D02*
X100417333Y-99234380D01*
X100607809Y-98758190D01*
X100798285Y-99234380D01*
X100988761Y-98567714D01*
X101369714Y-99234380D02*
X101369714Y-98567714D01*
X101369714Y-98234380D02*
X101322095Y-98282000D01*
X101369714Y-98329619D01*
X101417333Y-98282000D01*
X101369714Y-98234380D01*
X101369714Y-98329619D01*
X101703047Y-98567714D02*
X102084000Y-98567714D01*
X101845904Y-98234380D02*
X101845904Y-99091523D01*
X101893523Y-99186761D01*
X101988761Y-99234380D01*
X102084000Y-99234380D01*
X102845904Y-99186761D02*
X102750666Y-99234380D01*
X102560190Y-99234380D01*
X102464952Y-99186761D01*
X102417333Y-99139142D01*
X102369714Y-99043904D01*
X102369714Y-98758190D01*
X102417333Y-98662952D01*
X102464952Y-98615333D01*
X102560190Y-98567714D01*
X102750666Y-98567714D01*
X102845904Y-98615333D01*
X103274476Y-99234380D02*
X103274476Y-98234380D01*
X103703047Y-99234380D02*
X103703047Y-98710571D01*
X103655428Y-98615333D01*
X103560190Y-98567714D01*
X103417333Y-98567714D01*
X103322095Y-98615333D01*
X103274476Y-98662952D01*
X103941142Y-99329619D02*
X104703047Y-99329619D01*
X104798285Y-98567714D02*
X105179238Y-98567714D01*
X104941142Y-99234380D02*
X104941142Y-98377238D01*
X104988761Y-98282000D01*
X105084000Y-98234380D01*
X105179238Y-98234380D01*
X105655428Y-99234380D02*
X105560190Y-99186761D01*
X105512571Y-99091523D01*
X105512571Y-98234380D01*
X100036380Y-95551523D02*
X100750666Y-95551523D01*
X100893523Y-95599142D01*
X100988761Y-95694380D01*
X101036380Y-95837238D01*
X101036380Y-95932476D01*
X101036380Y-94551523D02*
X101036380Y-95122952D01*
X101036380Y-94837238D02*
X100036380Y-94837238D01*
X100179238Y-94932476D01*
X100274476Y-95027714D01*
X100322095Y-95122952D01*
X100036380Y-94218190D02*
X100036380Y-93551523D01*
X101036380Y-93980095D01*
%TO.C,J11*%
X115546857Y-131190761D02*
X115451619Y-131238380D01*
X115261142Y-131238380D01*
X115165904Y-131190761D01*
X115118285Y-131143142D01*
X115070666Y-131047904D01*
X115070666Y-130762190D01*
X115118285Y-130666952D01*
X115165904Y-130619333D01*
X115261142Y-130571714D01*
X115451619Y-130571714D01*
X115546857Y-130619333D01*
X116118285Y-131238380D02*
X116023047Y-131190761D01*
X115975428Y-131143142D01*
X115927809Y-131047904D01*
X115927809Y-130762190D01*
X115975428Y-130666952D01*
X116023047Y-130619333D01*
X116118285Y-130571714D01*
X116261142Y-130571714D01*
X116356380Y-130619333D01*
X116404000Y-130666952D01*
X116451619Y-130762190D01*
X116451619Y-131047904D01*
X116404000Y-131143142D01*
X116356380Y-131190761D01*
X116261142Y-131238380D01*
X116118285Y-131238380D01*
X116880190Y-130571714D02*
X116880190Y-131238380D01*
X116880190Y-130666952D02*
X116927809Y-130619333D01*
X117023047Y-130571714D01*
X117165904Y-130571714D01*
X117261142Y-130619333D01*
X117308761Y-130714571D01*
X117308761Y-131238380D01*
X117784952Y-130571714D02*
X117784952Y-131238380D01*
X117784952Y-130666952D02*
X117832571Y-130619333D01*
X117927809Y-130571714D01*
X118070666Y-130571714D01*
X118165904Y-130619333D01*
X118213523Y-130714571D01*
X118213523Y-131238380D01*
X118451619Y-131333619D02*
X119213523Y-131333619D01*
X119594476Y-131238380D02*
X119499238Y-131190761D01*
X119451619Y-131095523D01*
X119451619Y-130238380D01*
X120356380Y-131190761D02*
X120261142Y-131238380D01*
X120070666Y-131238380D01*
X119975428Y-131190761D01*
X119927809Y-131095523D01*
X119927809Y-130714571D01*
X119975428Y-130619333D01*
X120070666Y-130571714D01*
X120261142Y-130571714D01*
X120356380Y-130619333D01*
X120404000Y-130714571D01*
X120404000Y-130809809D01*
X119927809Y-130905047D01*
X121261142Y-130571714D02*
X121261142Y-131381238D01*
X121213523Y-131476476D01*
X121165904Y-131524095D01*
X121070666Y-131571714D01*
X120927809Y-131571714D01*
X120832571Y-131524095D01*
X121261142Y-131190761D02*
X121165904Y-131238380D01*
X120975428Y-131238380D01*
X120880190Y-131190761D01*
X120832571Y-131143142D01*
X120784952Y-131047904D01*
X120784952Y-130762190D01*
X120832571Y-130666952D01*
X120880190Y-130619333D01*
X120975428Y-130571714D01*
X121165904Y-130571714D01*
X121261142Y-130619333D01*
X121499238Y-131333619D02*
X122261142Y-131333619D01*
X122451619Y-131190761D02*
X122546857Y-131238380D01*
X122737333Y-131238380D01*
X122832571Y-131190761D01*
X122880190Y-131095523D01*
X122880190Y-131047904D01*
X122832571Y-130952666D01*
X122737333Y-130905047D01*
X122594476Y-130905047D01*
X122499238Y-130857428D01*
X122451619Y-130762190D01*
X122451619Y-130714571D01*
X122499238Y-130619333D01*
X122594476Y-130571714D01*
X122737333Y-130571714D01*
X122832571Y-130619333D01*
X123213523Y-130571714D02*
X123404000Y-131238380D01*
X123594476Y-130762190D01*
X123784952Y-131238380D01*
X123975428Y-130571714D01*
X124356380Y-131238380D02*
X124356380Y-130571714D01*
X124356380Y-130238380D02*
X124308761Y-130286000D01*
X124356380Y-130333619D01*
X124404000Y-130286000D01*
X124356380Y-130238380D01*
X124356380Y-130333619D01*
X124689714Y-130571714D02*
X125070666Y-130571714D01*
X124832571Y-130238380D02*
X124832571Y-131095523D01*
X124880190Y-131190761D01*
X124975428Y-131238380D01*
X125070666Y-131238380D01*
X125832571Y-131190761D02*
X125737333Y-131238380D01*
X125546857Y-131238380D01*
X125451619Y-131190761D01*
X125404000Y-131143142D01*
X125356380Y-131047904D01*
X125356380Y-130762190D01*
X125404000Y-130666952D01*
X125451619Y-130619333D01*
X125546857Y-130571714D01*
X125737333Y-130571714D01*
X125832571Y-130619333D01*
X126261142Y-131238380D02*
X126261142Y-130238380D01*
X126689714Y-131238380D02*
X126689714Y-130714571D01*
X126642095Y-130619333D01*
X126546857Y-130571714D01*
X126404000Y-130571714D01*
X126308761Y-130619333D01*
X126261142Y-130666952D01*
X120356380Y-125015523D02*
X121070666Y-125015523D01*
X121213523Y-125063142D01*
X121308761Y-125158380D01*
X121356380Y-125301238D01*
X121356380Y-125396476D01*
X121356380Y-124015523D02*
X121356380Y-124586952D01*
X121356380Y-124301238D02*
X120356380Y-124301238D01*
X120499238Y-124396476D01*
X120594476Y-124491714D01*
X120642095Y-124586952D01*
X121356380Y-123063142D02*
X121356380Y-123634571D01*
X121356380Y-123348857D02*
X120356380Y-123348857D01*
X120499238Y-123444095D01*
X120594476Y-123539333D01*
X120642095Y-123634571D01*
%TO.C,J7*%
X107430380Y-143081142D02*
X107382761Y-143176380D01*
X107287523Y-143224000D01*
X106430380Y-143224000D01*
X107382761Y-142319238D02*
X107430380Y-142414476D01*
X107430380Y-142604952D01*
X107382761Y-142700190D01*
X107287523Y-142747809D01*
X106906571Y-142747809D01*
X106811333Y-142700190D01*
X106763714Y-142604952D01*
X106763714Y-142414476D01*
X106811333Y-142319238D01*
X106906571Y-142271619D01*
X107001809Y-142271619D01*
X107097047Y-142747809D01*
X106763714Y-141414476D02*
X107573238Y-141414476D01*
X107668476Y-141462095D01*
X107716095Y-141509714D01*
X107763714Y-141604952D01*
X107763714Y-141747809D01*
X107716095Y-141843047D01*
X107382761Y-141414476D02*
X107430380Y-141509714D01*
X107430380Y-141700190D01*
X107382761Y-141795428D01*
X107335142Y-141843047D01*
X107239904Y-141890666D01*
X106954190Y-141890666D01*
X106858952Y-141843047D01*
X106811333Y-141795428D01*
X106763714Y-141700190D01*
X106763714Y-141509714D01*
X106811333Y-141414476D01*
X107525619Y-141176380D02*
X107525619Y-140414476D01*
X107430380Y-140176380D02*
X106430380Y-140176380D01*
X106811333Y-140176380D02*
X106763714Y-140081142D01*
X106763714Y-139890666D01*
X106811333Y-139795428D01*
X106858952Y-139747809D01*
X106954190Y-139700190D01*
X107239904Y-139700190D01*
X107335142Y-139747809D01*
X107382761Y-139795428D01*
X107430380Y-139890666D01*
X107430380Y-140081142D01*
X107382761Y-140176380D01*
X107430380Y-139128761D02*
X107382761Y-139224000D01*
X107287523Y-139271619D01*
X106430380Y-139271619D01*
X101774666Y-140676380D02*
X101774666Y-141390666D01*
X101727047Y-141533523D01*
X101631809Y-141628761D01*
X101488952Y-141676380D01*
X101393714Y-141676380D01*
X102155619Y-140676380D02*
X102822285Y-140676380D01*
X102393714Y-141676380D01*
%TO.C,J6*%
X107430380Y-108584761D02*
X107382761Y-108680000D01*
X107287523Y-108727619D01*
X106430380Y-108727619D01*
X107382761Y-107822857D02*
X107430380Y-107918095D01*
X107430380Y-108108571D01*
X107382761Y-108203809D01*
X107287523Y-108251428D01*
X106906571Y-108251428D01*
X106811333Y-108203809D01*
X106763714Y-108108571D01*
X106763714Y-107918095D01*
X106811333Y-107822857D01*
X106906571Y-107775238D01*
X107001809Y-107775238D01*
X107097047Y-108251428D01*
X106763714Y-106918095D02*
X107573238Y-106918095D01*
X107668476Y-106965714D01*
X107716095Y-107013333D01*
X107763714Y-107108571D01*
X107763714Y-107251428D01*
X107716095Y-107346666D01*
X107382761Y-106918095D02*
X107430380Y-107013333D01*
X107430380Y-107203809D01*
X107382761Y-107299047D01*
X107335142Y-107346666D01*
X107239904Y-107394285D01*
X106954190Y-107394285D01*
X106858952Y-107346666D01*
X106811333Y-107299047D01*
X106763714Y-107203809D01*
X106763714Y-107013333D01*
X106811333Y-106918095D01*
X107525619Y-106680000D02*
X107525619Y-105918095D01*
X107430380Y-105680000D02*
X106430380Y-105680000D01*
X106811333Y-105680000D02*
X106763714Y-105584761D01*
X106763714Y-105394285D01*
X106811333Y-105299047D01*
X106858952Y-105251428D01*
X106954190Y-105203809D01*
X107239904Y-105203809D01*
X107335142Y-105251428D01*
X107382761Y-105299047D01*
X107430380Y-105394285D01*
X107430380Y-105584761D01*
X107382761Y-105680000D01*
X107430380Y-104775238D02*
X106763714Y-104775238D01*
X106954190Y-104775238D02*
X106858952Y-104727619D01*
X106811333Y-104680000D01*
X106763714Y-104584761D01*
X106763714Y-104489523D01*
X101774666Y-106132380D02*
X101774666Y-106846666D01*
X101727047Y-106989523D01*
X101631809Y-107084761D01*
X101488952Y-107132380D01*
X101393714Y-107132380D01*
X102679428Y-106132380D02*
X102488952Y-106132380D01*
X102393714Y-106180000D01*
X102346095Y-106227619D01*
X102250857Y-106370476D01*
X102203238Y-106560952D01*
X102203238Y-106941904D01*
X102250857Y-107037142D01*
X102298476Y-107084761D01*
X102393714Y-107132380D01*
X102584190Y-107132380D01*
X102679428Y-107084761D01*
X102727047Y-107037142D01*
X102774666Y-106941904D01*
X102774666Y-106703809D01*
X102727047Y-106608571D01*
X102679428Y-106560952D01*
X102584190Y-106513333D01*
X102393714Y-106513333D01*
X102298476Y-106560952D01*
X102250857Y-106608571D01*
X102203238Y-106703809D01*
%TO.C,J5*%
X86602380Y-108418095D02*
X86554761Y-108513333D01*
X86459523Y-108560952D01*
X85602380Y-108560952D01*
X86554761Y-107656190D02*
X86602380Y-107751428D01*
X86602380Y-107941904D01*
X86554761Y-108037142D01*
X86459523Y-108084761D01*
X86078571Y-108084761D01*
X85983333Y-108037142D01*
X85935714Y-107941904D01*
X85935714Y-107751428D01*
X85983333Y-107656190D01*
X86078571Y-107608571D01*
X86173809Y-107608571D01*
X86269047Y-108084761D01*
X85935714Y-106751428D02*
X86745238Y-106751428D01*
X86840476Y-106799047D01*
X86888095Y-106846666D01*
X86935714Y-106941904D01*
X86935714Y-107084761D01*
X86888095Y-107180000D01*
X86554761Y-106751428D02*
X86602380Y-106846666D01*
X86602380Y-107037142D01*
X86554761Y-107132380D01*
X86507142Y-107180000D01*
X86411904Y-107227619D01*
X86126190Y-107227619D01*
X86030952Y-107180000D01*
X85983333Y-107132380D01*
X85935714Y-107037142D01*
X85935714Y-106846666D01*
X85983333Y-106751428D01*
X86697619Y-106513333D02*
X86697619Y-105751428D01*
X85935714Y-105656190D02*
X85935714Y-105275238D01*
X86602380Y-105513333D02*
X85745238Y-105513333D01*
X85650000Y-105465714D01*
X85602380Y-105370476D01*
X85602380Y-105275238D01*
X86602380Y-104941904D02*
X85935714Y-104941904D01*
X86126190Y-104941904D02*
X86030952Y-104894285D01*
X85983333Y-104846666D01*
X85935714Y-104751428D01*
X85935714Y-104656190D01*
X80946666Y-106132380D02*
X80946666Y-106846666D01*
X80899047Y-106989523D01*
X80803809Y-107084761D01*
X80660952Y-107132380D01*
X80565714Y-107132380D01*
X81899047Y-106132380D02*
X81422857Y-106132380D01*
X81375238Y-106608571D01*
X81422857Y-106560952D01*
X81518095Y-106513333D01*
X81756190Y-106513333D01*
X81851428Y-106560952D01*
X81899047Y-106608571D01*
X81946666Y-106703809D01*
X81946666Y-106941904D01*
X81899047Y-107037142D01*
X81851428Y-107084761D01*
X81756190Y-107132380D01*
X81518095Y-107132380D01*
X81422857Y-107084761D01*
X81375238Y-107037142D01*
%TO.C,J4*%
X87110380Y-142914476D02*
X87062761Y-143009714D01*
X86967523Y-143057333D01*
X86110380Y-143057333D01*
X87062761Y-142152571D02*
X87110380Y-142247809D01*
X87110380Y-142438285D01*
X87062761Y-142533523D01*
X86967523Y-142581142D01*
X86586571Y-142581142D01*
X86491333Y-142533523D01*
X86443714Y-142438285D01*
X86443714Y-142247809D01*
X86491333Y-142152571D01*
X86586571Y-142104952D01*
X86681809Y-142104952D01*
X86777047Y-142581142D01*
X86443714Y-141247809D02*
X87253238Y-141247809D01*
X87348476Y-141295428D01*
X87396095Y-141343047D01*
X87443714Y-141438285D01*
X87443714Y-141581142D01*
X87396095Y-141676380D01*
X87062761Y-141247809D02*
X87110380Y-141343047D01*
X87110380Y-141533523D01*
X87062761Y-141628761D01*
X87015142Y-141676380D01*
X86919904Y-141724000D01*
X86634190Y-141724000D01*
X86538952Y-141676380D01*
X86491333Y-141628761D01*
X86443714Y-141533523D01*
X86443714Y-141343047D01*
X86491333Y-141247809D01*
X87205619Y-141009714D02*
X87205619Y-140247809D01*
X86443714Y-140152571D02*
X86443714Y-139771619D01*
X87110380Y-140009714D02*
X86253238Y-140009714D01*
X86158000Y-139962095D01*
X86110380Y-139866857D01*
X86110380Y-139771619D01*
X87110380Y-139295428D02*
X87062761Y-139390666D01*
X86967523Y-139438285D01*
X86110380Y-139438285D01*
X81454666Y-140676380D02*
X81454666Y-141390666D01*
X81407047Y-141533523D01*
X81311809Y-141628761D01*
X81168952Y-141676380D01*
X81073714Y-141676380D01*
X82359428Y-141009714D02*
X82359428Y-141676380D01*
X82121333Y-140628761D02*
X81883238Y-141343047D01*
X82502285Y-141343047D01*
%TO.C,J12*%
X126452380Y-100631523D02*
X127166666Y-100631523D01*
X127309523Y-100679142D01*
X127404761Y-100774380D01*
X127452380Y-100917238D01*
X127452380Y-101012476D01*
X127452380Y-99631523D02*
X127452380Y-100202952D01*
X127452380Y-99917238D02*
X126452380Y-99917238D01*
X126595238Y-100012476D01*
X126690476Y-100107714D01*
X126738095Y-100202952D01*
X126547619Y-99250571D02*
X126500000Y-99202952D01*
X126452380Y-99107714D01*
X126452380Y-98869619D01*
X126500000Y-98774380D01*
X126547619Y-98726761D01*
X126642857Y-98679142D01*
X126738095Y-98679142D01*
X126880952Y-98726761D01*
X127452380Y-99298190D01*
X127452380Y-98679142D01*
%TO.C,C1*%
X140057523Y-115551142D02*
X140009904Y-115598761D01*
X139867047Y-115646380D01*
X139771809Y-115646380D01*
X139628952Y-115598761D01*
X139533714Y-115503523D01*
X139486095Y-115408285D01*
X139438476Y-115217809D01*
X139438476Y-115074952D01*
X139486095Y-114884476D01*
X139533714Y-114789238D01*
X139628952Y-114694000D01*
X139771809Y-114646380D01*
X139867047Y-114646380D01*
X140009904Y-114694000D01*
X140057523Y-114741619D01*
X140486095Y-115646380D02*
X140486095Y-114646380D01*
X140867047Y-114646380D01*
X140962285Y-114694000D01*
X141009904Y-114741619D01*
X141057523Y-114836857D01*
X141057523Y-114979714D01*
X141009904Y-115074952D01*
X140962285Y-115122571D01*
X140867047Y-115170190D01*
X140486095Y-115170190D01*
X140081333Y-123801142D02*
X140033714Y-123848761D01*
X139890857Y-123896380D01*
X139795619Y-123896380D01*
X139652761Y-123848761D01*
X139557523Y-123753523D01*
X139509904Y-123658285D01*
X139462285Y-123467809D01*
X139462285Y-123324952D01*
X139509904Y-123134476D01*
X139557523Y-123039238D01*
X139652761Y-122944000D01*
X139795619Y-122896380D01*
X139890857Y-122896380D01*
X140033714Y-122944000D01*
X140081333Y-122991619D01*
X141033714Y-123896380D02*
X140462285Y-123896380D01*
X140748000Y-123896380D02*
X140748000Y-122896380D01*
X140652761Y-123039238D01*
X140557523Y-123134476D01*
X140462285Y-123182095D01*
%TD*%
M02*
