(module power_servos_connector (layer F.Cu) (tedit 61EDD11B)
  (descr "B2P-VH(LF)(SN)")
  (tags Connector)
  (fp_text reference J8 (at 0 -2.54) (layer F.SilkS) hide
    (effects (font (size 1.27 1.27) (thickness 0.254)))
  )
  (fp_text value "power br" (at 2.54 -6.35) (layer F.SilkS) hide
    (effects (font (size 1.27 1.27) (thickness 0.254)))
  )
  (fp_text user - (at 3.81 2.54) (layer F.SilkS)
    (effects (font (size 1 1) (thickness 0.15)))
  )
  (fp_text user + (at 0 2.54) (layer F.SilkS)
    (effects (font (size 1 1) (thickness 0.15)))
  )
  (fp_line (start -1.95 -4.25) (end -1.95 0) (layer F.SilkS) (width 0.2))
  (fp_line (start 5.91 -4.25) (end -1.95 -4.25) (layer F.SilkS) (width 0.2))
  (fp_line (start 5.91 4.25) (end 5.91 -4.25) (layer F.SilkS) (width 0.2))
  (fp_line (start 0 4.25) (end 5.91 4.25) (layer F.SilkS) (width 0.2))
  (fp_line (start 5.91 4.25) (end -1.95 4.25) (layer Dwgs.User) (width 0.1))
  (fp_line (start 5.91 -4.25) (end 5.91 4.25) (layer Dwgs.User) (width 0.1))
  (fp_line (start -1.95 -4.25) (end 5.91 -4.25) (layer Dwgs.User) (width 0.1))
  (fp_line (start -1.95 4.25) (end -1.95 -4.25) (layer Dwgs.User) (width 0.1))
  (fp_line (start 6.16 4.5) (end -2.2 4.5) (layer Dwgs.User) (width 0.05))
  (fp_line (start 6.16 -4.5) (end 6.16 4.5) (layer Dwgs.User) (width 0.05))
  (fp_line (start -2.2 -4.5) (end 6.16 -4.5) (layer Dwgs.User) (width 0.05))
  (fp_line (start -2.2 4.5) (end -2.2 -4.5) (layer Dwgs.User) (width 0.05))
  (pad 1 thru_hole rect (at 0 0 90) (size 2.7 2.7) (drill 1.8) (layers *.Cu *.Mask F.SilkS))
  (pad 2 thru_hole circle (at 3.96 0 90) (size 2.7 2.7) (drill 1.8) (layers *.Cu *.Mask F.SilkS))
)
