PCBNEW-LibModule-V1  2021-10-16 22:24:14
# encoding utf-8
Units mm
$INDEX
TEENSY40
$EndINDEX
$MODULE TEENSY40
Po 0 0 0 15 616b42fe 00000000 ~~
Li TEENSY40
Cd TEENSY 4.0-4
Kw Integrated Circuit
Sc 0
At STD
AR 
Op 0 0 0
T0 16.510 -7.62 1.27 1.27 0 0.254 N V 21 N "IC**"
T1 16.510 -7.62 1.27 1.27 0 0.254 N I 21 N "TEENSY40"
DS -1.27 -16.51 34.29 -16.51 0.2 24
DS 34.29 -16.51 34.29 1.27 0.2 24
DS 34.29 1.27 -1.27 1.27 0.2 24
DS -1.27 1.27 -1.27 -16.51 0.2 24
DS -2.27 -17.51 35.29 -17.51 0.1 24
DS 35.29 -17.51 35.29 2.27 0.1 24
DS 35.29 2.27 -2.27 2.27 0.1 24
DS -2.27 2.27 -2.27 -17.51 0.1 24
DS -1.27 -16.51 34.29 -16.51 0.1 21
DS 34.29 -16.51 34.29 1.27 0.1 21
DS 34.29 1.27 -1.27 1.27 0.1 21
DS -1.27 1.27 -1.27 -16.51 0.1 21
$PAD
Po 0.000 -0
Sh "1" C 1.665 1.665 0 0 900
Dr 1.11 0 0
At STD N 00E0FFFF
Ne 0 ""
$EndPAD
$PAD
Po 2.540 -0
Sh "2" C 1.665 1.665 0 0 900
Dr 1.11 0 0
At STD N 00E0FFFF
Ne 0 ""
$EndPAD
$PAD
Po 5.080 -0
Sh "3" C 1.665 1.665 0 0 900
Dr 1.11 0 0
At STD N 00E0FFFF
Ne 0 ""
$EndPAD
$PAD
Po 7.620 -0
Sh "4" C 1.665 1.665 0 0 900
Dr 1.11 0 0
At STD N 00E0FFFF
Ne 0 ""
$EndPAD
$PAD
Po 10.160 -0
Sh "5" C 1.665 1.665 0 0 900
Dr 1.11 0 0
At STD N 00E0FFFF
Ne 0 ""
$EndPAD
$PAD
Po 12.700 -0
Sh "6" C 1.665 1.665 0 0 900
Dr 1.11 0 0
At STD N 00E0FFFF
Ne 0 ""
$EndPAD
$PAD
Po 15.240 -0
Sh "7" C 1.665 1.665 0 0 900
Dr 1.11 0 0
At STD N 00E0FFFF
Ne 0 ""
$EndPAD
$PAD
Po 17.780 -0
Sh "8" C 1.665 1.665 0 0 900
Dr 1.11 0 0
At STD N 00E0FFFF
Ne 0 ""
$EndPAD
$PAD
Po 20.320 -0
Sh "9" C 1.665 1.665 0 0 900
Dr 1.11 0 0
At STD N 00E0FFFF
Ne 0 ""
$EndPAD
$PAD
Po 22.860 -0
Sh "10" C 1.665 1.665 0 0 900
Dr 1.11 0 0
At STD N 00E0FFFF
Ne 0 ""
$EndPAD
$PAD
Po 25.400 -0
Sh "11" C 1.665 1.665 0 0 900
Dr 1.11 0 0
At STD N 00E0FFFF
Ne 0 ""
$EndPAD
$PAD
Po 27.940 -0
Sh "12" C 1.665 1.665 0 0 900
Dr 1.11 0 0
At STD N 00E0FFFF
Ne 0 ""
$EndPAD
$PAD
Po 30.480 -0
Sh "13" C 1.665 1.665 0 0 900
Dr 1.11 0 0
At STD N 00E0FFFF
Ne 0 ""
$EndPAD
$PAD
Po 33.020 -0
Sh "14" C 1.665 1.665 0 0 900
Dr 1.11 0 0
At STD N 00E0FFFF
Ne 0 ""
$EndPAD
$PAD
Po 33.020 -2.54
Sh "15" C 1.665 1.665 0 0 900
Dr 1.11 0 0
At STD N 00E0FFFF
Ne 0 ""
$EndPAD
$PAD
Po 33.020 -5.08
Sh "16" C 1.665 1.665 0 0 900
Dr 1.11 0 0
At STD N 00E0FFFF
Ne 0 ""
$EndPAD
$PAD
Po 33.020 -7.62
Sh "17" C 1.665 1.665 0 0 900
Dr 1.11 0 0
At STD N 00E0FFFF
Ne 0 ""
$EndPAD
$PAD
Po 33.020 -10.16
Sh "18" C 1.665 1.665 0 0 900
Dr 1.11 0 0
At STD N 00E0FFFF
Ne 0 ""
$EndPAD
$PAD
Po 33.020 -12.7
Sh "19" C 1.665 1.665 0 0 900
Dr 1.11 0 0
At STD N 00E0FFFF
Ne 0 ""
$EndPAD
$PAD
Po 33.020 -15.24
Sh "20" C 1.665 1.665 0 0 900
Dr 1.11 0 0
At STD N 00E0FFFF
Ne 0 ""
$EndPAD
$PAD
Po 30.480 -15.24
Sh "21" C 1.665 1.665 0 0 900
Dr 1.11 0 0
At STD N 00E0FFFF
Ne 0 ""
$EndPAD
$PAD
Po 27.940 -15.24
Sh "22" C 1.665 1.665 0 0 900
Dr 1.11 0 0
At STD N 00E0FFFF
Ne 0 ""
$EndPAD
$PAD
Po 25.400 -15.24
Sh "23" C 1.665 1.665 0 0 900
Dr 1.11 0 0
At STD N 00E0FFFF
Ne 0 ""
$EndPAD
$PAD
Po 22.860 -15.24
Sh "24" C 1.665 1.665 0 0 900
Dr 1.11 0 0
At STD N 00E0FFFF
Ne 0 ""
$EndPAD
$PAD
Po 20.320 -15.24
Sh "25" C 1.665 1.665 0 0 900
Dr 1.11 0 0
At STD N 00E0FFFF
Ne 0 ""
$EndPAD
$PAD
Po 17.780 -15.24
Sh "26" C 1.665 1.665 0 0 900
Dr 1.11 0 0
At STD N 00E0FFFF
Ne 0 ""
$EndPAD
$PAD
Po 15.240 -15.24
Sh "27" C 1.665 1.665 0 0 900
Dr 1.11 0 0
At STD N 00E0FFFF
Ne 0 ""
$EndPAD
$PAD
Po 12.700 -15.24
Sh "28" C 1.665 1.665 0 0 900
Dr 1.11 0 0
At STD N 00E0FFFF
Ne 0 ""
$EndPAD
$PAD
Po 10.160 -15.24
Sh "29" C 1.665 1.665 0 0 900
Dr 1.11 0 0
At STD N 00E0FFFF
Ne 0 ""
$EndPAD
$PAD
Po 7.620 -15.24
Sh "30" C 1.665 1.665 0 0 900
Dr 1.11 0 0
At STD N 00E0FFFF
Ne 0 ""
$EndPAD
$PAD
Po 5.080 -15.24
Sh "31" C 1.665 1.665 0 0 900
Dr 1.11 0 0
At STD N 00E0FFFF
Ne 0 ""
$EndPAD
$PAD
Po 2.540 -15.24
Sh "32" C 1.665 1.665 0 0 900
Dr 1.11 0 0
At STD N 00E0FFFF
Ne 0 ""
$EndPAD
$PAD
Po 0.000 -15.24
Sh "33" C 1.665 1.665 0 0 900
Dr 1.11 0 0
At STD N 00E0FFFF
Ne 0 ""
$EndPAD
$PAD
Po 2.540 -12.7
Sh "34" C 1.665 1.665 0 0 900
Dr 1.11 0 0
At STD N 00E0FFFF
Ne 0 ""
$EndPAD
$EndMODULE TEENSY40
$EndLIBRARY
