M48
; DRILL file {KiCad 6.0.6-3a73a75311~116~ubuntu20.04.1} date So 14 Aug 2022 13:15:34 CEST
; FORMAT={-:-/ absolute / inch / decimal}
; #@! TF.CreationDate,2022-08-14T13:15:34+02:00
; #@! TF.GenerationSoftware,Kicad,Pcbnew,6.0.6-3a73a75311~116~ubuntu20.04.1
; #@! TF.FileFunction,Plated,1,2,PTH
FMAT,2
INCH
; #@! TA.AperFunction,Plated,PTH,ComponentDrill
T1C0.0394
%
G90
G05
T1
X0.7169Y-1.05
X0.7169Y-1.15
X0.7169Y-1.25
X0.7169Y-1.35
X0.9361Y-0.7783
X0.9411Y-1.3298
X1.6611Y-0.7783
X1.6611Y-1.3298
T0
M30
