M48
; DRILL file {KiCad 5.1.10-88a1d61d58~88~ubuntu18.04.1} date Fri Jan 28 19:25:32 2022
; FORMAT={-:-/ absolute / metric / decimal}
; #@! TF.CreationDate,2022-01-28T19:25:32+01:00
; #@! TF.GenerationSoftware,Kicad,Pcbnew,5.1.10-88a1d61d58~88~ubuntu18.04.1
; #@! TF.FileFunction,Plated,1,2,PTH
FMAT,2
METRIC
T1C1.000
T2C1.110
%
G90
G05
T1
X27.94Y-17.78
X27.94Y-64.516
X30.48Y-17.78
X30.48Y-64.516
X33.02Y-17.78
X33.02Y-64.516
X35.56Y-17.78
X35.56Y-64.516
T2
X25.908Y-49.022
X28.448Y-49.022
X30.988Y-49.022
X33.528Y-49.022
X41.148Y-38.862
X41.148Y-41.402
T0
M30
