(kicad_sch (version 20211123) (generator eeschema)

  (uuid 6c6f4b9b-3f0e-4542-9576-bed68320004b)

  (paper "A4")

  (lib_symbols
    (symbol "Connector:Conn_01x04_Male" (pin_names (offset 1.016) hide) (in_bom yes) (on_board yes)
      (property "Reference" "J" (id 0) (at 0 5.08 0)
        (effects (font (size 1.27 1.27)))
      )
      (property "Value" "Conn_01x04_Male" (id 1) (at 0 -7.62 0)
        (effects (font (size 1.27 1.27)))
      )
      (property "Footprint" "" (id 2) (at 0 0 0)
        (effects (font (size 1.27 1.27)) hide)
      )
      (property "Datasheet" "~" (id 3) (at 0 0 0)
        (effects (font (size 1.27 1.27)) hide)
      )
      (property "ki_keywords" "connector" (id 4) (at 0 0 0)
        (effects (font (size 1.27 1.27)) hide)
      )
      (property "ki_description" "Generic connector, single row, 01x04, script generated (kicad-library-utils/schlib/autogen/connector/)" (id 5) (at 0 0 0)
        (effects (font (size 1.27 1.27)) hide)
      )
      (property "ki_fp_filters" "Connector*:*_1x??_*" (id 6) (at 0 0 0)
        (effects (font (size 1.27 1.27)) hide)
      )
      (symbol "Conn_01x04_Male_1_1"
        (polyline
          (pts
            (xy 1.27 -5.08)
            (xy 0.8636 -5.08)
          )
          (stroke (width 0.1524) (type default) (color 0 0 0 0))
          (fill (type none))
        )
        (polyline
          (pts
            (xy 1.27 -2.54)
            (xy 0.8636 -2.54)
          )
          (stroke (width 0.1524) (type default) (color 0 0 0 0))
          (fill (type none))
        )
        (polyline
          (pts
            (xy 1.27 0)
            (xy 0.8636 0)
          )
          (stroke (width 0.1524) (type default) (color 0 0 0 0))
          (fill (type none))
        )
        (polyline
          (pts
            (xy 1.27 2.54)
            (xy 0.8636 2.54)
          )
          (stroke (width 0.1524) (type default) (color 0 0 0 0))
          (fill (type none))
        )
        (rectangle (start 0.8636 -4.953) (end 0 -5.207)
          (stroke (width 0.1524) (type default) (color 0 0 0 0))
          (fill (type outline))
        )
        (rectangle (start 0.8636 -2.413) (end 0 -2.667)
          (stroke (width 0.1524) (type default) (color 0 0 0 0))
          (fill (type outline))
        )
        (rectangle (start 0.8636 0.127) (end 0 -0.127)
          (stroke (width 0.1524) (type default) (color 0 0 0 0))
          (fill (type outline))
        )
        (rectangle (start 0.8636 2.667) (end 0 2.413)
          (stroke (width 0.1524) (type default) (color 0 0 0 0))
          (fill (type outline))
        )
        (pin passive line (at 5.08 2.54 180) (length 3.81)
          (name "Pin_1" (effects (font (size 1.27 1.27))))
          (number "1" (effects (font (size 1.27 1.27))))
        )
        (pin passive line (at 5.08 0 180) (length 3.81)
          (name "Pin_2" (effects (font (size 1.27 1.27))))
          (number "2" (effects (font (size 1.27 1.27))))
        )
        (pin passive line (at 5.08 -2.54 180) (length 3.81)
          (name "Pin_3" (effects (font (size 1.27 1.27))))
          (number "3" (effects (font (size 1.27 1.27))))
        )
        (pin passive line (at 5.08 -5.08 180) (length 3.81)
          (name "Pin_4" (effects (font (size 1.27 1.27))))
          (number "4" (effects (font (size 1.27 1.27))))
        )
      )
    )
  )

  (junction (at 160.02 88.9) (diameter 0) (color 0 0 0 0)
    (uuid 53908251-d764-4ca9-97a2-9c2e71c3c415)
  )
  (junction (at 160.02 86.36) (diameter 0) (color 0 0 0 0)
    (uuid 6c8f41c3-9307-48fe-a1d2-a4c051288b76)
  )

  (wire (pts (xy 160.02 86.36) (xy 160.02 88.9))
    (stroke (width 0) (type default) (color 0 0 0 0))
    (uuid 1e0b3f34-6daf-413b-ab23-3186d6bc5a5d)
  )
  (wire (pts (xy 140.97 86.36) (xy 160.02 86.36))
    (stroke (width 0) (type default) (color 0 0 0 0))
    (uuid 2281ec85-986b-4f1e-9274-64ab3e647b00)
  )
  (wire (pts (xy 140.97 83.82) (xy 160.02 83.82))
    (stroke (width 0) (type default) (color 0 0 0 0))
    (uuid 472dc78b-65f6-48b3-80fa-05d0ee7f75c9)
  )
  (wire (pts (xy 140.97 91.44) (xy 160.02 91.44))
    (stroke (width 0) (type default) (color 0 0 0 0))
    (uuid cecd21b3-a8d8-42a5-8b1a-a093a61f8fa3)
  )
  (wire (pts (xy 140.97 88.9) (xy 160.02 88.9))
    (stroke (width 0) (type default) (color 0 0 0 0))
    (uuid d295c277-259c-45a6-8061-cde0129b2fa5)
  )

  (symbol (lib_id "Connector:Conn_01x04_Male") (at 165.1 88.9 180) (unit 1)
    (in_bom yes) (on_board yes) (fields_autoplaced)
    (uuid 7bf195d6-fc36-48e0-b2f3-ff1b710083af)
    (property "Reference" "J2" (id 0) (at 166.37 86.3599 0)
      (effects (font (size 1.27 1.27)) (justify right))
    )
    (property "Value" "input_adaptor" (id 1) (at 166.37 88.8999 0)
      (effects (font (size 1.27 1.27)) (justify right))
    )
    (property "Footprint" "Connector_PinHeader_2.54mm:PinHeader_1x04_P2.54mm_Vertical" (id 2) (at 165.1 88.9 0)
      (effects (font (size 1.27 1.27)) hide)
    )
    (property "Datasheet" "~" (id 3) (at 165.1 88.9 0)
      (effects (font (size 1.27 1.27)) hide)
    )
    (pin "1" (uuid 7228ace7-f246-454a-9a01-57d03c8c24ed))
    (pin "2" (uuid 46590cca-1fec-4dc1-89c2-fd5d70636cf4))
    (pin "3" (uuid 74ca9a6a-1ce4-497f-b512-806b958b9fca))
    (pin "4" (uuid 8709c315-3514-4935-8a4d-1e0db2b3f3b9))
  )

  (symbol (lib_id "Connector:Conn_01x04_Male") (at 135.89 86.36 0) (unit 1)
    (in_bom yes) (on_board yes) (fields_autoplaced)
    (uuid 7d523301-b5d2-4414-afa3-762d0a5f7318)
    (property "Reference" "J1" (id 0) (at 136.525 78.74 0))
    (property "Value" "output_adaptor" (id 1) (at 136.525 81.28 0))
    (property "Footprint" "Connector_PinHeader_2.54mm:PinHeader_1x04_P2.54mm_Vertical" (id 2) (at 135.89 86.36 0)
      (effects (font (size 1.27 1.27)) hide)
    )
    (property "Datasheet" "~" (id 3) (at 135.89 86.36 0)
      (effects (font (size 1.27 1.27)) hide)
    )
    (pin "1" (uuid 508b6fa9-075d-4c6a-acb8-9ed2badcf465))
    (pin "2" (uuid 9fc939a6-c64f-4bc4-a442-69e9334cab89))
    (pin "3" (uuid 1ffdc510-0d19-433c-8081-85db1b78a946))
    (pin "4" (uuid 8d68f58a-6e07-44c5-a051-ad138ce85b6b))
  )

  (sheet_instances
    (path "/" (page "1"))
  )

  (symbol_instances
    (path "/7d523301-b5d2-4414-afa3-762d0a5f7318"
      (reference "J1") (unit 1) (value "output_adaptor") (footprint "Connector_PinHeader_2.54mm:PinHeader_1x04_P2.54mm_Vertical")
    )
    (path "/7bf195d6-fc36-48e0-b2f3-ff1b710083af"
      (reference "J2") (unit 1) (value "input_adaptor") (footprint "Connector_PinHeader_2.54mm:PinHeader_1x04_P2.54mm_Vertical")
    )
  )
)
