
G20
G90
G94
F3.00
G00 Z0.1000
M03
G4 P1
G00 X0.2400Y-0.1060
G01 Z-0.0709
G01 X-0.3860Y-0.1060
G01 X-0.3860Y1.0250
G00 Z0.1000
G00 X-0.3860Y1.0541
G01 Z-0.0709
G01 X-0.3860Y2.1851
G01 X0.2400Y2.1851
G00 Z0.1000
G00 X0.2691Y2.1851
G01 Z-0.0709
G01 X0.8951Y2.1851
G01 X0.8951Y1.0541
G00 Z0.1000
G00 X0.8951Y1.0250
G01 Z-0.0709
G01 X0.8951Y-0.1060
G01 X0.2691Y-0.1060
G00 Z0.1000
G00 Z0.1000
G00 X0Y0
M05
